{
	"name": "hw2-gulp-scss",
	"version": "1.0.0",
	"description": "homework2",
	"main": "script.js",
	"scripts": {
		"test": "node script.js"
	},
	"repository": {
		"type": "git",
		"url": "git+https://gitlab.com/eakisheva/hw2-gulp-scss.git"
	},
	"author": "Olena Akisheva",
	"license": "ISC",
	"bugs": {
		"url": "https://gitlab.com/eakisheva/hw2-gulp-scss/issues"
	},
	"homepage": "https://gitlab.com/eakisheva/hw2-gulp-scss#readme",
	"devDependencies": {
		"browser-sync": "^2.27.10",
		"gulp": "^4.0.2",
		"gulp-autoprefixer": "^6.1.0",
		"gulp-clean": "^0.4.0",
		"gulp-clean-css": "^4.3.0",
		"gulp-imagemin": "^7.1.0",
		"gulp-js-minify": "^0.0.3",
		"gulp-sass": "^5.1.0",
		"gulp-uglify": "^3.0.2",
		"readable-stream": "^4.0.0",
		"sass": "^1.53.0"
	}
}
